<svg width="4" height="11" viewBox="0 0 4 11" fill="none" xmlns="http://www.w3.org/2000/svg">
<path d="M2.89648 6.68457H1.22852L0.879883 0.00585938H3.24512L2.89648 6.68457ZM0.852539 9.02246C0.852539 8.80827 0.882161 8.62826 0.941406 8.48242C1.00521 8.33203 1.0918 8.21126 1.20117 8.12012C1.31055 8.02897 1.43815 7.96289 1.58398 7.92188C1.72982 7.88086 1.88704 7.86035 2.05566 7.86035C2.21517 7.86035 2.36556 7.88086 2.50684 7.92188C2.65267 7.96289 2.78027 8.02897 2.88965 8.12012C2.99902 8.21126 3.08561 8.33203 3.14941 8.48242C3.21322 8.62826 3.24512 8.80827 3.24512 9.02246C3.24512 9.22754 3.21322 9.40299 3.14941 9.54883C3.08561 9.69466 2.99902 9.81543 2.88965 9.91113C2.78027 10.0068 2.65267 10.0752 2.50684 10.1162C2.36556 10.1618 2.21517 10.1846 2.05566 10.1846C1.88704 10.1846 1.72982 10.1618 1.58398 10.1162C1.43815 10.0752 1.31055 10.0068 1.20117 9.91113C1.0918 9.81543 1.00521 9.69466 0.941406 9.54883C0.882161 9.40299 0.852539 9.22754 0.852539 9.02246Z" fill="#ff0000"/>
</svg>
